stacker/stackertest.vcd
$date
  Mon Nov  6 19:22:41 2023
$end
$version
  GHDL v0
$end
$timescale
  1 fs
$end
$scope module standard $end
$upscope $end
$scope module std_logic_1164 $end
$upscope $end
$scope module numeric_std $end
$upscope $end
$scope module stackertest $end
$var reg 1 ! clk $end
$var reg 4 " mbrview[3:0] $end
$var reg 4 # stackview[3:0] $end
$var reg 3 $ stateview[2:0] $end
$var reg 1 % b0 $end
$var reg 1 & b1 $end
$var reg 1 ' b2 $end
$var reg 4 ( data[3:0] $end
$scope module l0 $end
$var reg 1 ) clock $end
$var reg 4 * data[3:0] $end
$var reg 1 + b0 $end
$var reg 1 , b1 $end
$var reg 1 - b2 $end
$var reg 4 . mbrview[3:0] $end
$var reg 4 / stackview[3:0] $end
$var reg 3 0 stateview[2:0] $end
$var reg 4 1 ram_input[3:0] $end
$var reg 4 2 ram_output[3:0] $end
$var reg 1 3 ram_we $end
$var reg 4 4 stack_ptr[3:0] $end
$var reg 4 5 mbr[3:0] $end
$var reg 3 6 state[2:0] $end
$scope module ram_instance $end
$upscope $end
$upscope $end
$upscope $end
$enddefinitions $end
#0
0!
b0000 "
b0000 #
b000 $
1%
0&
0'
b0000 (
0)
b0000 *
1+
0,
0-
b0000 .
b0000 /
b000 0
b0000 1
bUUUU 2
03
b0000 4
b0000 5
b000 6
#5000000
1!
1&
1'
1)
1,
1-
#10000000
0!
0)
#15000000
1!
1)
#20000000
0!
0)
#25000000
1!
1)
#30000000
0!
0)
#35000000
1!
1)
#40000000
0!
0)
#45000000
1!
1)
#50000000
0!
0%
b0001 (
0)
b0001 *
0+
#55000000
1!
b0001 "
b111 $
1)
b0001 .
b111 0
b0001 5
b111 6
#60000000
0!
1%
0)
1+
#65000000
1!
b000 $
1)
b000 0
b000 6
#70000000
0!
0&
0)
0,
#75000000
1!
b001 $
1)
b001 0
b0001 1
13
b001 6
#80000000
0!
1&
0)
1,
#85000000
1!
b0001 #
b111 $
1)
b0001 /
b111 0
03
b0001 4
b111 6
#90000000
0!
0)
#95000000
1!
b000 $
1)
b000 0
b000 6
#100000000
0!
0%
b0010 (
0)
b0010 *
0+
#105000000
1!
b0010 "
b111 $
1)
b0010 .
b111 0
b0010 5
b111 6
#110000000
0!
1%
0)
1+
#115000000
1!
b000 $
1)
b000 0
b000 6
#120000000
0!
0&
0)
0,
#125000000
1!
b001 $
1)
b001 0
b0010 1
13
b001 6
#130000000
0!
1&
0)
1,
#135000000
1!
b0010 #
b111 $
1)
b0010 /
b111 0
03
b0010 4
b111 6
#140000000
0!
0)
#145000000
1!
b000 $
1)
b000 0
b000 6
#150000000
0!
0%
b0011 (
0)
b0011 *
0+
#155000000
1!
b0011 "
b111 $
1)
b0011 .
b111 0
b0011 5
b111 6
#160000000
0!
1%
0)
1+
#165000000
1!
b000 $
1)
b000 0
b000 6
#170000000
0!
0&
0)
0,
#175000000
1!
b001 $
1)
b001 0
b0011 1
13
b001 6
#180000000
0!
1&
0)
1,
#185000000
1!
b0011 #
b111 $
1)
b0011 /
b111 0
03
b0011 4
b111 6
#190000000
0!
b0000 (
0)
b0000 *
#195000000
1!
b000 $
1)
b000 0
b000 6
#200000000
0!
0%
0)
0+
#205000000
1!
b0000 "
b111 $
1)
b0000 .
b111 0
b0000 5
b111 6
#210000000
0!
1%
0)
1+
#215000000
1!
b000 $
1)
b000 0
b000 6
#220000000
0!
0'
0)
0-
#225000000
1!
b0010 #
b100 $
1)
b0010 /
b100 0
b0010 4
b100 6
#230000000
0!
1'
0)
1-
#235000000
1!
b101 $
1)
b101 0
b101 6
#240000000
0!
0)
#245000000
1!
b110 $
1)
b110 0
b110 6
#250000000
0!
0)
#255000000
1!
bUUUU "
b111 $
1)
bUUUU .
b111 0
bUUUU 5
b111 6
#260000000
0!
0)
#265000000
1!
b000 $
1)
b000 0
b000 6
#270000000
0!
0)
#275000000
1!
1)
#280000000
0!
0'
0)
0-
#285000000
1!
b0001 #
b100 $
1)
b0001 /
b100 0
b0001 4
b100 6
#290000000
0!
1'
0)
1-
#295000000
1!
b101 $
1)
b101 0
b101 6
#300000000
0!
0)
#305000000
1!
b110 $
1)
b110 0
b110 6
#310000000
0!
0)
#315000000
1!
b111 $
1)
b111 0
b111 6
#320000000
0!
0)
#325000000
1!
b000 $
1)
b000 0
b000 6
#330000000
0!
0)
#335000000
1!
1)
#340000000
0!
0'
0)
0-
#345000000
1!
b0000 #
b100 $
1)
b0000 /
b100 0
b0000 4
b100 6
#350000000
0!
1'
0)
1-
#355000000
1!
b101 $
1)
b101 0
b101 6
#360000000
0!
0)
#365000000
1!
b110 $
1)
b110 0
b110 6
#370000000
0!
0)
#375000000
1!
b111 $
1)
b111 0
b111 6
#380000000
0!
0)
#385000000
1!
b000 $
1)
b000 0
b000 6
